<?xml version="1.0" encoding="UTF-8" standalone="no"?>
<!-- Created with Inkscape (http://www.inkscape.org/) -->

<svg
   xmlns:dc="http://purl.org/dc/elements/1.1/"
   xmlns:cc="http://creativecommons.org/ns#"
   xmlns:rdf="http://www.w3.org/1999/02/22-rdf-syntax-ns#"
   xmlns:svg="http://www.w3.org/2000/svg"
   xmlns="http://www.w3.org/2000/svg"
   xmlns:sodipodi="http://sodipodi.sourceforge.net/DTD/sodipodi-0.dtd"
   xmlns:inkscape="http://www.inkscape.org/namespaces/inkscape"
   version="1.1"
   id="svg2"
   width="492.17032"
   height="126.16026"
   viewBox="0 0 492.17032 126.16026"
   sodipodi:docname="akku-horizontal.svg"
   inkscape:version="0.92.3 (2405546, 2018-03-11)">
  <title
     id="title828">Akku.scm brand, horizontal</title>
  <metadata
     id="metadata8">
    <rdf:RDF>
      <cc:Work
         rdf:about="">
        <dc:format>image/svg+xml</dc:format>
        <dc:type
           rdf:resource="http://purl.org/dc/dcmitype/StillImage" />
        <dc:title>Akku.scm brand, horizontal</dc:title>
        <dc:creator>
          <cc:Agent>
            <dc:title>Göran Weinholt</dc:title>
          </cc:Agent>
        </dc:creator>
        <dc:date>2018-07</dc:date>
        <dc:publisher>
          <cc:Agent>
            <dc:title>akkuscm.org</dc:title>
          </cc:Agent>
        </dc:publisher>
        <cc:license
           rdf:resource="http://creativecommons.org/licenses/by-nd/4.0/" />
        <dc:rights>
          <cc:Agent>
            <dc:title>© 2018 Göran Weinholt</dc:title>
          </cc:Agent>
        </dc:rights>
      </cc:Work>
      <cc:License
         rdf:about="http://creativecommons.org/licenses/by-nd/4.0/">
        <cc:permits
           rdf:resource="http://creativecommons.org/ns#Reproduction" />
        <cc:permits
           rdf:resource="http://creativecommons.org/ns#Distribution" />
        <cc:requires
           rdf:resource="http://creativecommons.org/ns#Notice" />
        <cc:requires
           rdf:resource="http://creativecommons.org/ns#Attribution" />
      </cc:License>
    </rdf:RDF>
  </metadata>
  <defs
     id="defs6" />
  <sodipodi:namedview
     pagecolor="#ffffff"
     bordercolor="#666666"
     borderopacity="1"
     objecttolerance="10"
     gridtolerance="10"
     guidetolerance="10"
     inkscape:pageopacity="0"
     inkscape:pageshadow="2"
     inkscape:window-width="1746"
     inkscape:window-height="1104"
     id="namedview4"
     showgrid="false"
     inkscape:zoom="1.7383042"
     inkscape:cx="235.64159"
     inkscape:cy="38.550816"
     inkscape:window-x="435"
     inkscape:window-y="301"
     inkscape:window-maximized="0"
     inkscape:current-layer="layer4"
     inkscape:snap-page="true"
     inkscape:pagecheckerboard="false"
     borderlayer="false"
     fit-margin-top="0"
     fit-margin-left="0"
     fit-margin-right="0"
     fit-margin-bottom="0" />
  <g
     inkscape:groupmode="layer"
     id="layer1"
     inkscape:label="zinc"
     style="display:inline"
     transform="translate(1.52185,-1285.6392)" />
  <g
     inkscape:groupmode="layer"
     id="layer2"
     inkscape:label="copper"
     style="display:inline"
     transform="translate(1.52185,-1285.6392)" />
  <g
     inkscape:groupmode="layer"
     id="layer3"
     inkscape:label="akku"
     style="display:inline"
     transform="translate(1.52185,-1285.6392)">
    <path
       inkscape:connector-curvature="0"
       id="path847"
       d="m 253.24384,1410.9104 c -2.7794,-1.7352 -8.59512,-7.8643 -11.33409,-11.9448 -5.45,-8.1193 -10.0482,-18.2428 -14.13608,-31.1222 -1.37782,-4.341 -2.50513,-7.9587 -2.50513,-8.0393 0,-0.081 -3.09102,-0.1697 -6.86894,-0.198 -10.16435,-0.076 -22.77483,-1.6434 -30.04004,-3.7333 l -3.6883,-1.061 -1.30729,1.5112 c -0.71901,0.8312 -4.1173,4.862 -7.55177,8.9575 -11.17545,13.3261 -20.80333,22.0009 -31.22732,28.1362 -4.30475,2.5336 -5.74004,2.8642 -5.74004,1.322 0,-0.4188 2.88137,-4.1912 6.40305,-8.3833 3.52168,-4.192 7.73881,-9.3079 9.3714,-11.3686 1.63259,-2.0607 5.67639,-7.0063 8.98622,-10.9903 13.10612,-15.7756 22.67861,-28.2628 32.16792,-41.9629 9.00046,-12.9944 11.4555,-15.4864 15.25655,-15.4864 2.83532,0 5.1218,1.384 7.85906,4.757 3.24579,3.9996 5.64837,8.8093 10.10094,20.221 2.09048,5.3577 4.20454,10.753 4.69791,11.9894 l 0.89705,2.248 3.33899,-0.1706 c 3.24272,-0.1657 3.38928,-0.1203 5.0832,1.5736 1.29988,1.2999 1.74374,2.1705 1.74234,3.4177 -0.002,2.4428 -1.69379,4.8822 -4.01706,5.7948 -1.08668,0.4269 -1.97578,0.9305 -1.97578,1.1191 0,0.6021 7.32165,21.5812 8.98055,25.7323 3.21247,8.0388 6.41757,13.7122 9.7365,17.2348 4.25861,4.52 4.83031,6.7934 2.38932,9.5011 -1.85244,2.0549 -4.28507,2.4022 -6.61916,0.945 z m -44.71053,-60.9228 c 7.33343,-0.4946 13.13773,-1.2103 13.60496,-1.6775 0.12888,-0.1289 -0.58148,-3.6773 -1.5786,-7.8852 -4.42038,-18.6546 -7.76501,-28.8821 -9.44516,-28.8821 -0.95885,0 -2.79383,2.9615 -8.20264,13.2383 -4.92478,9.3572 -9.92786,17.9239 -13.06879,22.3775 -1.12281,1.592 -2.04146,2.997 -2.04146,3.1222 0,0.4088 13.06308,0.224 20.73169,-0.2932 z m 105.59901,60.7169 c -1.64309,-0.8929 -10.56016,-11.6582 -15.93041,-19.2323 -5.04157,-7.1104 -8.44757,-10.6474 -11.30334,-11.738 -2.05693,-0.7856 -2.77264,-1.8259 -1.70858,-2.4835 0.68038,-0.4205 4.8512,0.6754 7.76879,2.0413 4.96152,2.3227 11.50743,8.8505 18.22536,18.175 1.48466,2.0606 3.89235,5.0226 5.35043,6.582 2.8946,3.0959 3.41381,5.0618 1.7375,6.5788 -1.10577,1.0008 -2.39552,1.0246 -4.13975,0.077 z m 160.16637,-4.4193 c -8.31151,-2.7567 -14.15035,-9.2199 -17.79059,-19.6928 -1.14984,-3.3082 -3.44066,-13.5045 -3.44066,-15.3143 0,-2.4197 -0.84895,-1.6731 -2.39939,2.1101 -3.79749,9.2663 -10.03074,17.2281 -15.70943,20.0657 -5.15704,2.577 -9.0537,1.8609 -13.39472,-2.4617 -6.4075,-6.3802 -8.66106,-18.955 -6.92654,-38.6494 0.98089,-11.1373 4.66159,-25.348 6.66532,-25.7339 0.9075,-0.1748 0.93138,0.1804 0.62095,9.2362 -1.28262,37.4127 -1.09483,42.6405 1.74366,48.5385 2.54216,5.2823 5.47262,5.8189 9.64569,1.7661 4.67872,-4.5439 8.97347,-12.5504 15.36683,-28.6475 2.45533,-6.182 4.78937,-11.7458 5.18677,-12.364 0.88282,-1.3733 3.19623,-1.5062 4.33402,-0.2489 1.30036,1.4369 1.72798,3.0476 4.62742,17.4316 2.95959,14.6824 3.53608,16.8035 5.77525,21.2498 2.74538,5.4514 5.71531,7.2907 13.59285,8.4184 1.87075,0.2679 4.04488,0.8197 4.83134,1.2264 4.82169,2.4935 4.82968,9.6453 0.014,12.4579 -2.15654,1.2596 -9.69813,1.6216 -12.74265,0.6118 z m -95.86801,-0.9502 c -1.63851,-1.4647 -11.81892,-18.3185 -14.5597,-24.1037 -2.51303,-5.3044 -4.74736,-8.5249 -6.24404,-8.9999 -0.59347,-0.1884 -2.04504,-0.072 -3.22575,0.2586 l -2.1467,0.601 -0.33331,4.5697 c -1.23071,16.8747 -1.72628,21.0177 -2.66505,22.2788 -1.95617,2.6281 -5.25916,2.5908 -7.2488,-0.082 -0.9601,-1.2897 -1.00996,-2.0946 -1.02095,-16.4855 -0.0155,-20.4135 1.86885,-52.01 3.67001,-61.5377 0.52474,-2.7755 1.0219,-5.7208 1.10483,-6.5451 0.1096,-1.0891 0.41138,-1.4987 1.10442,-1.4987 0.74624,0 1.15383,0.7062 1.8742,3.2472 2.68917,9.4855 3.42323,16.1871 3.83921,35.0501 l 0.32681,14.818 9.27866,-6.5753 c 14.00219,-9.9225 25.53261,-18.1929 27.02074,-19.3811 2.41362,-1.9271 5.5005,-0.042 4.45103,2.719 -0.49402,1.2994 -7.57277,7.8466 -15.77248,14.5882 -5.05489,4.156 -11.72695,8.7217 -15.61122,10.6827 -1.16772,0.5896 -2.12312,1.1765 -2.12312,1.3043 0,0.1279 1.405,0.9414 3.12224,1.8079 1.93164,0.9747 4.48184,2.9347 6.68774,5.1399 3.3482,3.3472 3.87354,4.1984 8.6174,13.9642 2.86007,5.8877 5.05189,11.03 5.05189,11.8523 0,1.6627 -1.53874,3.4508 -2.96948,3.4508 -0.53423,0 -1.53709,-0.5058 -2.22858,-1.124 z m -108.66513,-2.1905 c -0.96995,-1.2331 -1.03507,-1.9513 -1.03044,-11.365 0.0125,-25.3747 4.65898,-61.9922 9.59866,-75.6436 1.92511,-5.3203 3.21245,-6.1145 3.68332,-2.2722 0.12977,1.0589 0.43858,2.7122 0.68623,3.6738 1.19643,4.6458 1.5512,11.4478 1.03116,19.7704 -0.66749,10.6823 -1.28278,15.8524 -5.09961,42.8503 -3.35544,23.7345 -3.50523,24.3026 -6.40779,24.3026 -0.94569,0 -1.77497,-0.4435 -2.46153,-1.3163 z m 11.67647,-28.2012 c -0.39248,-0.6351 -0.64674,-0.3951 4.77272,-4.5059 6.36039,-4.8246 31.13769,-21.3301 33.16617,-22.0938 1.22073,-0.4596 3.30163,0.8854 3.30163,2.1341 0,2.2123 -18.06437,16.0265 -26.53644,20.293 -3.67895,1.8527 -11.841,4.7157 -13.44384,4.7157 -0.50852,0 -1.07563,-0.2444 -1.26024,-0.5431 z m -141.07533,-56.3067 c -1.02899,-1.0289 -1.52185,-2.0139 -1.52185,-3.0413 0,-2.8732 11.22495,-23.5376 15.46619,-28.4722 1.99717,-2.3237 3.14979,-1.8777 2.72033,1.0527 -0.85128,5.8085 -4.39827,18.5444 -6.50783,23.367 -2.61501,5.9782 -4.18246,7.8932 -6.80959,8.3195 -1.57287,0.2552 -2.03594,0.086 -3.34725,-1.2257 z"
       style="fill:#020202;stroke-width:0.49955899" />
  </g>
  <g
     inkscape:groupmode="layer"
     id="layer4"
     inkscape:label="lime"
     style="display:inline"
     transform="translate(1.52185,-1285.6392)">
    <g
       id="g825"
       transform="matrix(1.0546111,0,0,1.0546111,-5.7402944,-93.861117)">
      <path
         inkscape:connector-curvature="0"
         id="path2442"
         d="m 72.446399,1368.3993 c 0,-0.1344 0.262437,-0.4216 0.61113,-0.6688 1.246288,-0.8836 7.705248,-7.4449 14.373013,-14.6008 0.988148,-1.0605 2.572462,-2.719 3.520701,-3.6856 1.134522,-1.1566 1.69023,-1.8123 1.625116,-1.9176 -0.06729,-0.1089 -0.04631,-0.1276 0.06549,-0.058 0.112087,0.069 0.899166,-0.6465 2.470645,-2.2467 2.284829,-2.3268 2.304034,-2.3511 2.074769,-2.6228 l -0.231404,-0.2744 0.301542,0.2561 0.301533,0.2559 2.336017,-2.3788 c 5.175669,-5.2706 13.086959,-13.5098 16.082779,-16.7493 4.498,-4.8638 9.6645,-9.7062 12.08733,-11.3291 0.78207,-0.524 1.51951,-0.4945 2.0976,0.084 0.35693,0.3568 0.43744,0.5357 0.43744,0.9712 0,0.7176 -0.24535,1.1472 -1.07983,1.891 -1.50263,1.3393 -6.7173,7.0385 -10.75406,11.7534 -2.36514,2.7624 -4.29509,4.9441 -8.98994,10.1625 -2.89168,3.2142 -8.55073,8.9528 -12.016291,12.1854 -1.326796,1.2376 -2.412352,2.2984 -2.412352,2.3572 0,0.059 -0.08419,0.1258 -0.18711,0.1487 -0.102899,0.023 -0.92792,0.7392 -1.833382,1.5917 -3.479137,3.2757 -8.466499,7.4713 -12.067628,10.1518 -3.557835,2.6483 -4.492825,3.2316 -6.938894,4.3286 -1.533059,0.6875 -1.874224,0.7595 -1.874224,0.3953 z"
         style="display:inline;fill:#7c7b7b;stroke-width:0.12865865" />
      <path
         style="display:inline;fill:#ea560b;stroke-width:0.12865865"
         d="m 4,1426.8497 c 0,-0.1079 0.2682121,-0.354 0.5960266,-0.5468 1.7399126,-1.0236 3.7932685,-2.6638 7.2038484,-5.7543 0.702814,-0.6369 1.913064,-1.7076 2.689446,-2.3794 4.3074,-3.7271 9.027907,-8.18 15.628383,-14.7421 15.41325,-15.3237 22.158295,-21.9077 26.632339,-25.9962 0.951465,-0.8695 2.59142,-1.9772 2.927235,-1.9772 0.515969,0 0.486692,0.4742 -0.09842,1.5941 -0.592573,1.1342 -0.565024,1.0962 -3.03633,4.1955 -2.492052,3.1254 -5.753623,6.7565 -10.458718,11.6437 -3.592299,3.7312 -10.332111,10.3922 -12.499869,12.3535 -10.371892,9.3843 -16.302219,14.211 -23.279672,18.9473 -1.4505702,0.9847 -5.4305535,2.858 -6.0719579,2.858 C 4.1045416,1427.0458 4,1426.9575 4,1426.8497 Z"
         id="path851"
         inkscape:connector-curvature="0" />
      <path
         inkscape:connector-curvature="0"
         d="m 70.510358,1426.2755 c -8.809507,-1.1683 -17.152989,-4.3429 -23.795688,-9.054 -3.925913,-2.7842 -8.305701,-6.9719 -11.658605,-11.1471 -0.426201,-0.5307 -0.813926,-1.0312 -0.861618,-1.1122 -0.05057,-0.086 0.355012,-0.5684 0.973142,-1.1579 0.582919,-0.5559 1.698818,-1.6317 2.479778,-2.3909 l 1.419927,-1.3802 0.574087,0.7369 c 1.806813,2.3194 4.765466,5.4479 7.008959,7.4113 6.469763,5.662 14.276459,9.2244 23.480204,10.7146 1.057264,0.1711 2.287822,0.2226 5.660979,0.2365 l 4.310065,0.018 0.661034,0.3401 c 1.329252,0.6839 2.064843,2.0042 1.945436,3.4918 -0.156681,1.9519 -1.508959,3.1544 -3.84984,3.4236 -1.768697,0.2033 -6.373556,0.1314 -8.34786,-0.1304 z m 29.532382,-18.7023 c -1.459248,-0.6796 -2.314374,-2.39 -1.978309,-3.957 0.07631,-0.356 0.50334,-1.4104 0.948854,-2.3431 2.673825,-5.5979 3.807465,-9.9683 4.185955,-16.1378 0.16405,-2.6742 0.038,-6.0009 -0.33761,-8.9097 -0.10507,-0.8137 -0.2438,-1.8848 -0.3083,-2.3801 -0.14405,-1.1064 -0.57203,-3.3599 -0.91628,-4.8248 -0.47647,-2.0274 -0.89001,-3.6647 -1.00733,-3.9884 -0.0641,-0.1769 -0.24214,-0.7558 -0.39558,-1.2865 -0.816799,-2.8252 -2.313164,-6.6256 -3.795464,-9.6396 -0.60006,-1.2202 -1.09104,-2.2661 -1.09104,-2.3242 0,-0.1244 4.883224,-4.6852 4.942144,-4.6159 0.18926,0.2226 1.76687,3.107 2.48869,4.5501 3.09172,6.1811 5.17275,12.5508 6.66231,20.3924 0.8448,4.4473 1.21876,11.5683 0.82768,15.7606 -0.53186,5.7013 -2.08072,11.226 -4.62466,16.496 -1.02073,2.1146 -1.71035,2.9367 -2.76491,3.296 -0.91728,0.3125 -2.05155,0.2774 -2.83615,-0.088 z m -69.168839,-7.3215 c -4.347392,-6.7239 -7.665667,-15.0364 -8.974805,-22.4822 -1.255744,-7.1421 -1.147694,-13.3648 0.377545,-21.7433 1.659178,-9.1142 4.602669,-16.0675 9.749076,-23.0298 1.150924,-1.5571 2.09483,-2.5451 3.520946,-3.6855 1.170646,-0.9361 1.320119,-0.9205 1.222226,0.1278 -0.105268,1.1273 -0.817664,2.9317 -2.582143,6.5402 -2.531692,5.1774 -3.825601,8.5042 -4.894784,12.5851 -1.25496,4.79 -2.04764,10.562 -2.217451,16.1467 -0.1614,5.3081 0.477267,10.5044 1.897591,15.439 1.535625,5.3352 3.701182,10.1504 6.850901,15.2333 l 0.908906,1.4666 -2.438655,2.3556 c -1.341263,1.2957 -2.467605,2.3576 -2.502987,2.36 -0.03539,0 -0.447746,-0.5887 -0.916366,-1.3135 z m 61.17575,-53.6497 c -4.975674,-7.1528 -12.427136,-13.0434 -20.523613,-16.2244 -7.131988,-2.8021 -14.284654,-3.7533 -24.747039,-3.2909 -1.698295,0.075 -4.260231,0.1472 -5.693195,0.1604 -2.946876,0.027 -3.095569,-0.03 -1.993909,-0.7745 2.251819,-1.5204 5.399146,-2.5073 10.195947,-3.1969 3.14496,-0.4522 4.865358,-0.5694 8.362814,-0.5695 4.637991,-10e-5 7.806427,0.3954 12.415559,1.5499 10.067615,2.5216 19.680188,8.8618 26.390075,17.4063 l 0.955805,1.2171 -2.28665,2.328 c -1.257666,1.2803 -2.318214,2.3278 -2.356795,2.3276 -0.03861,-2e-4 -0.362123,-0.4201 -0.718999,-0.9331 z"
         style="fill:#4f9934;stroke-width:0.12865865"
         id="path849" />
    </g>
  </g>
</svg>
